<?xml version="1.0" encoding="utf-8"?>
<!-- Generator: Adobe Illustrator 19.0.0, SVG Export Plug-In . SVG Version: 6.00 Build 0)  -->
<svg version="1.1" id="Layer_1" xmlns="http://www.w3.org/2000/svg" xmlns:xlink="http://www.w3.org/1999/xlink" x="0px" y="0px"
	 viewBox="0 0 113 42" style="enable-background:new 0 0 113 42;" xml:space="preserve">
<style type="text/css">
	.st0{fill:#111111;}
	.st1{fill:#FFFFFF;}
</style>
<g>
	<path class="st0" d="M111.2,10.7c-0.8-1.7-2.1-1.9-3.5-0.6c-0.1,0.1-0.1,0.1-0.3,0.2c-0.1-0.2-0.3-0.4-0.3-0.6
		c-0.3-1.2-1.1-1.5-2.3-1.4c-1.7,0.1-3.3,0-5,0c-0.8,0-1.6-0.1-1.8,1c-0.3-1-0.9-1.1-1.7-1c-1.2,0.1-2.4,0-3.7,0
		c0.8-1.4,1.5-2.8,2.2-4.1c0.3-0.5,0.3-0.8,0-1.3c-0.5-0.9-1-1.9-1.4-2.8c-2.6,0-5.2,0-7.7,0c-1.6,2.9-3.1,5.8-4.7,8.6
		c-0.6,1.1-1.2,2.3-1.8,3.4c-0.2,0.3-0.4,0.6-0.7,1c-1.2-2.1-1.7-4.6-4.8-4.7c0.8-1.4,1.4-2.8,2.2-4.1c0.3-0.6,0.3-1,0-1.6
		C75.5,1.8,75,0.9,74.6,0c-2.6,0-5.2,0-7.7,0c-1.8,3.4-3.6,6.7-5.5,10.2c-0.3-0.6-0.6-1-0.8-1.5c-0.5-1-1.2-1.5-2.3-1.6
		c-2.4-0.2-4.4,0.4-5.9,2.4c-0.1,0.1-0.1,0.2-0.2,0.2c-0.1,0-0.1,0-0.2-0.1c-0.3-1.2-1.1-1.6-2.3-1.5c-1.7,0.1-3.4,0.1-5.2,0.1
		c-0.7,0-1.4-0.1-1.7,1c-0.3-1.1-1-1.1-1.8-1c-1.5,0-3,0-4.8,0c2-1.7,3.9-3.2,5.8-4.7C41.6,2.3,41,1.2,40.5,0C37,0,33.5,0,30,0
		c-0.4,0.4-0.7,0.9-1.2,1.4c-0.3-0.7-0.5-1-0.7-1.4c-2.7,0-5.4,0-8.1,0c-2.3,4.4-4.6,8.8-7,13.1c-0.1,0.3-0.6,0.4-0.9,0.6
		c-1.8,0.6-3.6,1-5.3,1.7c-3.4,1.6-6,4-6.9,7.8c0,0.5,0,1.1,0,1.6c0.7,1.5,1.3,2.9,2,4.4c0.8,1.7,2.2,2.5,4.1,2.6
		c3.9,0.2,7-1.3,9.7-4c0.5-0.5,1-1.1,1.5-1.7c0.5,0.9,0.9,1.8,1.3,2.6c1.5,3,4.3,4,7.4,2.5c0.7-0.4,1.3-0.9,2-1.4
		c0.3-0.2,0.5-0.4,0.7-0.6c2.2,3.3,3.5,3.5,8.2,0.8c2,2.5,3.4,2.5,7.9-0.2c2.3,2.6,5.2,2.2,7.8,1.6c0.7,0.2,1.2,0.4,1.6,0.4
		c2.1,0,4.1,0,6.2,0c0.5,0,0.8-0.2,1.1-0.6c0.9-1.5,1.8-2.9,2.8-4.5c0.6,1.1,1,2.1,1.5,3c0.9,1.9,2.5,2.7,4.5,2
		c1.5-0.5,2.8-1.4,4.3-2.2c0.4,1,1.1,1.9,2.3,2.2c1.2,0.3,2.4,0.1,3.7-0.5c-1.1,2.2-0.5,4,0.5,5.8c0.3,0.5,0.5,0.9,0.7,1.4
		c1.8,4,6.7,4.4,9.4,2.3c1-0.8,1.9-1.7,2.6-2.8c1.6-2.6,3-5.2,4.5-7.8c0.3-0.5,0.7-1,1.1-1.3c4.3-3.2,8.5-6.6,12.2-10.5
		c0.5-0.6,0.9-1.3,1.3-2c0-0.6,0-1.2,0-1.8C112.4,13.2,111.8,12,111.2,10.7z M32.9,11c-1,3.4-3.8,5.2-6.1,7.5
		c-0.3-0.6-0.6-1.2-0.9-1.8C28.2,14.7,30.5,12.9,32.9,11z"/>
	<path class="st1" d="M54.4,26.8c1.3-2.5,2.6-4.9,3.9-7.3c-1.2,0.7-2.4,1.3-3.5,2c-0.2,0.1-0.3,0.5-0.5,0.8c-0.9,2-2.2,3.7-4.5,4.2
		c-1.2,0.2-2.5,0.2-3.7,0.1c-0.9-0.1-1.7-0.7-1.8-1.7c-0.1-1.1,0.3-1.9,1.3-2.3c1.5-0.6,3-1.1,4.6-1.5c0.5-0.2,0.8-0.4,0.9-0.9
		c0.3-1.6,0.6-3.2,1-5c-0.4,0.3-0.6,0.5-0.7,0.7c-2.6,2.6-5.2,5.2-7.8,7.7c-0.9,0.9-2,1.8-3.1,2.5c-0.6,0.4-1.5,0.6-2.3,0.7
		c-1.2,0.1-1.8-0.8-1.5-1.9c0.1-0.6,0.4-1.2,0.7-1.8c0.2-0.5,0.5-0.9,0.6-1.4c-0.9,0.9-1.8,1.8-2.8,2.7c-1,0.8-1.9,1.5-3,2.1
		c-1.9,1-3.7-0.1-3.6-2.3c0-0.9,0.4-1.8,0.7-2.6c0.1-0.2,0.2-0.4,0.1-0.7c-1.4,1.5-2.8,2.9-4.3,4.4c-1.2,1.2-2.5,1.8-4.2,1.6
		c-1.4-0.1-2.2-0.8-2.2-2.3c0-1.4,0.2-2.9,0.2-4.3c0-0.7-0.1-1.4-0.2-2.2c-0.1-0.3-0.3-0.7-0.6-1c-0.4-0.4-0.7-0.4-1,0.1
		c-0.7,1.2-1.4,2.5-2.2,3.5c-1.1,1.4-2.4,2.8-3.8,3.9c-1.8,1.5-4,2.1-6.4,2.1c-2.3,0-3.5-1.5-2.9-3.8c0.5-2,1.8-3.4,3.4-4.6
		c2.2-1.7,4.8-2.6,7.6-3c0.8-0.1,1.2-0.4,1.6-1.1c2.1-4,4.2-7.9,6.3-11.8c0.3-0.5,0.5-0.7,1.1-0.7c1.1,0,2.3,0,3.5,0
		c-1.5,2.9-2.9,5.6-4.4,8.4c0,0,0.1,0.1,0.1,0.1c1.7-1.5,3.5-3,5.2-4.6c1.3-1.2,2.7-2.4,4-3.5c0.2-0.2,0.6-0.4,0.8-0.4
		c1.4,0,2.8,0,4.4,0.1C30.7,5.8,25.9,9.7,21,13.6c0.2,0.1,0.3,0.1,0.4,0.2c1.5,0.6,2.3,1.7,2.3,3.3c0,1.5-0.1,3-0.1,4.5
		c0,0.3,0.1,0.7,0.2,1c0.4-0.1,0.8-0.1,1.1-0.3c0.5-0.3,1-0.7,1.4-1.2c1.9-1.8,3.8-3.5,5.7-5.3c0.4-0.3,0.7-0.8,0.9-1.2
		c0.8-1.4,1.5-2.8,2.2-4.1c0.1-0.3,0.5-0.5,0.8-0.5c1.1-0.1,2.2,0,3.4,0c-0.1,0.3-0.2,0.5-0.3,0.7c-1.4,2.7-2.9,5.4-4.3,8
		c-0.2,0.4-0.4,0.7-0.5,1.1c-0.1,0.3-0.1,0.9,0.1,1c0.3,0.2,0.8,0.2,1.1,0.1c0.6-0.3,1.1-0.6,1.6-1.1c2.6-2.3,4.8-4.9,6.2-8
		c0.6-1.4,1.4-2.1,3-1.8c0.6,0.1,1.3,0,2.1,0c-1.8,3.7-4,7.2-5.7,10.9c0.1,0.1,0.2,0.1,0.3,0.2c0.3-0.2,0.6-0.3,0.8-0.5
		c3-2.8,5.9-5.5,8.9-8.3c0.2-0.2,0.4-0.6,0.5-0.9c0.9-1.9,2.5-2.7,4.5-2.6c1.2,0.1,1.5,0.6,0.9,1.6c-0.2,0.4-0.5,0.8-0.9,1.1
		C57,12.2,56.7,13,56.5,14c-0.3,1.7-0.7,3.4-1,5.3c1.9-1.2,4-1.9,5-3.9c2.3-4.4,4.6-8.7,6.9-13c0.2-0.5,0.5-0.7,1.1-0.6
		c1.1,0,2.1,0,3.3,0c-2.7,5.1-5.4,10.1-8.1,15.1c0,0,0,0,0.1,0c0.9-1,1.8-2.1,2.8-3.1c1.3-1.4,2.8-2.6,4.6-3.3
		c0.9-0.3,1.9-0.5,2.8-0.5c1.3,0.1,2,1.1,1.7,2.4c-0.2,0.7-0.5,1.5-0.8,2.2c-0.9,1.7-1.8,3.4-2.7,5.1c-0.2,0.4-0.3,0.8-0.4,1.2
		c0.1,0,0.1,0.1,0.2,0.1c0.3-0.1,0.5-0.3,0.8-0.5c2.5-2.3,5-4.6,7.4-6.9c0.2-0.2,0.4-0.5,0.5-0.8c1.9-3.5,3.8-7,5.6-10.5
		c0.2-0.4,0.5-0.6,1-0.6c1.1,0,2.1,0,3.4,0c-3.4,6.4-6.8,12.7-10.1,19.1c0.1,0.1,0.2,0.1,0.2,0.2c0.2-0.1,0.5-0.2,0.7-0.4
		c2.2-2,4.5-4,6.5-6.1c1-1,1.5-2.5,2.1-3.8c0.3-0.7,0.7-0.9,1.5-0.9c1,0.1,1.9,0,3,0c-0.1,0.3-0.2,0.5-0.3,0.7
		c-1.4,2.7-2.9,5.4-4.3,8c-0.2,0.4-0.4,0.8-0.5,1.2c-0.1,0.3,0,0.8,0.2,0.9c0.2,0.2,0.7,0.2,1,0.1c0.6-0.3,1.1-0.6,1.6-1
		c2.9-2.4,5.1-5.3,6.7-8.8c0.4-0.9,0.9-1.3,1.9-1.2c0.8,0.1,1.7,0,2.7,0c-2.1,3.9-4.1,7.8-6.1,11.6c0,0.1,0.1,0.1,0.1,0.2
		c3.9-3.6,7.7-7.1,11.6-10.7c0.5,0.8,0.4,1.7-0.2,2.4c-3.9,4.1-8.2,7.6-12.7,10.9c-0.4,0.3-0.7,0.7-0.9,1.1
		c-1.4,2.4-2.7,4.9-4.1,7.3c-0.5,0.9-1.2,1.8-1.9,2.6c-1.6,1.7-4.1,2-6,1c-2-1.1-2.4-3.5-0.6-5c0.8-0.7,1.8-1.3,2.8-1.9
		c1.6-0.9,3.2-1.7,4.7-2.6c0.4-0.2,0.8-0.6,1-1c0.8-1.5,1.6-3,2.5-4.8c-0.3,0.3-0.4,0.4-0.6,0.5c-1.5,1.3-2.9,2.7-4.4,4
		c-0.6,0.5-1.3,0.8-2,1.1c-1.6,0.6-3.1-0.4-3.1-2.1c0-1,0.3-2,0.6-2.9c0.2-0.5,0.5-1,0.8-1.5C85.1,20.1,85.1,20,85,20
		c-1,1.1-2,2.2-3.1,3.3c-1.1,1-2.2,1.9-3.3,2.8c-0.6,0.4-1.4,0.7-2.1,0.7c-1.4,0.2-2.1-0.7-1.8-2.1c0.2-0.6,0.4-1.2,0.7-1.7
		c0.7-1.3,1.4-2.6,1.9-4c-0.7,0.8-1.4,1.5-2.2,2.3c-1.4,1.3-2.7,2.7-4.2,3.9c-0.8,0.7-1.8,1.3-2.9,1.6c-1.7,0.5-2.7-0.6-2.2-2.3
		c0.2-0.6,0.4-1.1,0.7-1.6c1-1.9,2.1-3.8,3.1-5.8c0.3-0.6,0.5-1.2,0.7-1.8c0.1-0.2,0-0.6-0.1-0.7c-0.1-0.1-0.5-0.1-0.7,0
		c-0.5,0.3-1,0.6-1.5,0.9c-3.7,3-6.8,6.6-9.2,10.7c-0.3,0.5-0.6,0.7-1.1,0.7C56.6,26.8,55.6,26.8,54.4,26.8z M12.7,17.3
		c-3.4,0.9-6.2,2.2-8,5.2c-0.1,0.1-0.1,0.3-0.2,0.5c-0.1,0.7,0.1,1.1,0.8,0.9c0.8-0.2,1.6-0.4,2.2-0.8C9.8,21.7,11.2,19.6,12.7,17.3
		z M89.4,29.5c-0.1-0.1-0.1-0.1-0.2-0.2c-1.3,1.1-2.6,2.3-3.9,3.4c-0.3,0.3-0.6,0.7-0.6,1.1c0,0.4,0.1,1,0.4,1.2
		c0.3,0.2,0.9,0.1,1.2-0.2c0.4-0.3,0.6-0.7,0.9-1.1C87.9,32.3,88.7,30.9,89.4,29.5z M49.8,23.5c-0.1-0.1-0.1-0.2-0.2-0.3
		c-0.7,0.3-1.4,0.5-2,0.9c-0.2,0.1-0.2,0.6-0.3,0.9c0.3,0,0.7,0.2,0.9,0.1C48.8,24.6,49.3,24,49.8,23.5z"/>
</g>
</svg>
