<?xml version="1.0" encoding="utf-8"?>
<!-- Generator: Adobe Illustrator 19.0.0, SVG Export Plug-In . SVG Version: 6.00 Build 0)  -->
<svg version="1.1" id="Layer_1" xmlns="http://www.w3.org/2000/svg" xmlns:xlink="http://www.w3.org/1999/xlink" x="0px" y="0px"
	 viewBox="0 0 22.2 17" style="enable-background:new 0 0 22.2 17;" xml:space="preserve">
<style type="text/css">
	.st0{fill:#AAAAAA;}
</style>
<g>
	<g>
		<path class="st0" d="M3.1,11.4C3.1,11.4,3.1,11.4,3.1,11.4c-0.2,0-0.3-0.1-0.4-0.2L0.1,7.2C-0.1,7,0,6.7,0.2,6.5
			c0.2-0.2,0.5-0.1,0.7,0.1L3.2,10l2.6-3.1c0.2-0.2,0.5-0.2,0.7-0.1C6.7,7,6.7,7.4,6.5,7.6l-3,3.6C3.4,11.3,3.3,11.4,3.1,11.4z"/>
	</g>
	<g>
		<path class="st0" d="M21.7,11.5c-0.2,0-0.3-0.1-0.4-0.2l-2.3-3.4L16.5,11c-0.2,0.2-0.5,0.2-0.7,0.1c-0.2-0.2-0.2-0.5-0.1-0.7
			l3-3.6c0.1-0.1,0.3-0.2,0.4-0.2c0.2,0,0.3,0.1,0.4,0.2l2.6,3.9c0.2,0.2,0.1,0.5-0.1,0.7C21.9,11.5,21.8,11.5,21.7,11.5z"/>
	</g>
	<g>
		<path class="st0" d="M11.1,17c-2.2,0-4.3-0.9-6-2.5c-0.2-0.2-0.2-0.5,0-0.7c0.2-0.2,0.5-0.2,0.7,0c1.9,1.8,4.5,2.6,7,2
			c3.8-0.9,6.5-4.8,5.7-8.6c-0.1-0.3,0.1-0.5,0.4-0.6c0.3-0.1,0.5,0.1,0.6,0.4c0.8,4.3-2.1,8.7-6.5,9.7C12.4,16.9,11.8,17,11.1,17z"
			/>
	</g>
	<g>
		<path class="st0" d="M3.1,11.3c-0.2,0-0.4-0.1-0.5-0.4C2,8.7,2.4,6.4,3.6,4.4c1.2-2.1,3.3-3.6,5.6-4.1c3.1-0.7,6.2,0.3,8.3,2.6
			c0.2,0.2,0.2,0.5,0,0.7c-0.2,0.2-0.5,0.2-0.7,0c-1.8-2.1-4.6-3-7.3-2.3c-2,0.5-3.8,1.8-5,3.7c-1.1,1.8-1.4,3.9-0.8,5.8
			c0.1,0.3-0.1,0.5-0.4,0.6C3.2,11.3,3.2,11.3,3.1,11.3z"/>
	</g>
</g>
</svg>
